Gun Climate Analysis
…
gun_climate_data

## # A tibble: 50 x 6
##    law_strength state       grade_2017 death_rate_rank death_rate state_abb
##           <int> <chr>       <fct>                <int>      <dbl> <chr>    
##  1           36 Alabama     F                        2       21.4 AL       
##  2           44 Alaska      F                        1       23   AK       
##  3           47 Arizona     F                       16       15.2 AZ       
##  4           39 Arkansas    F                        9       17.7 AR       
##  5            1 California  A                       43        7.9 CA       
##  6           15 Colorado    C                       20       14.3 CO       
##  7            3 Connecticut A                       46        4.6 CT       
##  8           11 Delaware    B                       37       10.9 DE       
##  9           26 Florida     F                       26       12.6 FL       
## 10           32 Georgia     F                       17       14.9 GA       
## # ... with 40 more rows
…
